[
  {
    "title": "Kachi Ghani",
    "price": 105,
    "weight": "1L",
    "img": "oil.jpg",
    "ids": "btn1"
  },
  {
    "title": "Flour",
    "price": 200,
    "weight": "5kg",
    "img": "atta.jpg",
    "ids": "btn2"
  },
  {
    "title": "Coconut Oil",
    "price": 150,
    "weight": "500g",
    "img": "coconut.jpg",
    "ids": "btn3"
  },
  {
    "title": "Fortune Oil",
    "price": 100,
    "weight": "1L",
    "img": "fortuneoil.jpg",
    "ids": "btn4"
  },
  {
    "title": "Surf",
    "price": 144,
    "weight": "1kg",
    "img": "surf.jpg",
    "ids": "btn5"
  }
]